﻿FIX XML before conversion
-Add at beginning :
"<?xml version="1.0" encoding="UTF-8"?>
<PointsOfInterest>"
-Add at the end:
"</PointsOfInterest>"

-Replace: 
"<url>"              => "<url><![CDATA["
"</url>"             => "]]></url>"
"\r\n</description>" => "</description>"
"pointofInterest"    => "sights" (Ali pa sprememba v JSON enostavno)


FIX JSON after conversion
-delete
"PointsOfInterest": {
}

-delete at the end
,
    "#text": [
      " 

 
",
      " 
 
"
    ]


